<?xml version="1.0" encoding="utf-8"  standalone="no"?>
<!DOCTYPE svg PUBLIC "-//W3C//DTD SVG 1.1//EN" 
 "http://www.w3.org/Graphics/SVG/1.1/DTD/svg11.dtd">
<svg 
 width="320" height="240" 
 viewBox="0 0 320 240"
 xmlns="http://www.w3.org/2000/svg"
 xmlns:xlink="http://www.w3.org/1999/xlink"
>

<title>Gnuplot</title>
<desc>Produced by GNUPLOT 4.6 patchlevel 3 </desc>

<g id="gnuplot_canvas">

<rect x="0" y="0" width="320" height="240" fill="none"/>
<defs>

	<circle id='gpDot' r='0.5' stroke-width='0.5'/>
	<path id='gpPt0' stroke-width='0.299' stroke='currentColor' d='M-1,0 h2 M0,-1 v2'/>
	<path id='gpPt1' stroke-width='0.299' stroke='currentColor' d='M-1,-1 L1,1 M1,-1 L-1,1'/>
	<path id='gpPt2' stroke-width='0.299' stroke='currentColor' d='M-1,0 L1,0 M0,-1 L0,1 M-1,-1 L1,1 M-1,1 L1,-1'/>
	<rect id='gpPt3' stroke-width='0.299' stroke='currentColor' x='-1' y='-1' width='2' height='2'/>
	<rect id='gpPt4' stroke-width='0.299' stroke='currentColor' fill='currentColor' x='-1' y='-1' width='2' height='2'/>
	<circle id='gpPt5' stroke-width='0.299' stroke='currentColor' cx='0' cy='0' r='1'/>
	<use xlink:href='#gpPt5' id='gpPt6' fill='currentColor' stroke='none'/>
	<path id='gpPt7' stroke-width='0.299' stroke='currentColor' d='M0,-1.33 L-1.33,0.67 L1.33,0.67 z'/>
	<use xlink:href='#gpPt7' id='gpPt8' fill='currentColor' stroke='none'/>
	<use xlink:href='#gpPt7' id='gpPt9' stroke='currentColor' transform='rotate(180)'/>
	<use xlink:href='#gpPt9' id='gpPt10' fill='currentColor' stroke='none'/>
	<use xlink:href='#gpPt3' id='gpPt11' stroke='currentColor' transform='rotate(45)'/>
	<use xlink:href='#gpPt11' id='gpPt12' fill='currentColor' stroke='none'/>
</defs>
<g style="fill:none; color:white; stroke:rgb(128, 128, 128); stroke-width:1.00; stroke-linecap:round; stroke-linejoin:round">
</g>
<g style="fill:none; color:gray; stroke:currentColor; stroke-width:1.00; stroke-linecap:round; stroke-linejoin:round">
</g>
<g style="fill:none; color:gray; stroke:rgb(128, 128, 128); stroke-width:0.50; stroke-linecap:round; stroke-linejoin:round">
</g>
<g style="fill:none; color:blue; stroke:currentColor; stroke-width:0.50; stroke-linecap:round; stroke-linejoin:round">
	<path stroke='rgb(128, 128, 128)' stroke-dasharray=' 2,4' class="gridline"  d='M54.3,197.2 L301.0,197.2  h0.01'/></g>
<g style="fill:none; color:blue; stroke:rgb(128, 128, 128); stroke-width:1.00; stroke-linecap:round; stroke-linejoin:round">
</g>
<g style="fill:none; color:gray; stroke:currentColor; stroke-width:1.00; stroke-linecap:round; stroke-linejoin:round">
	<path stroke='rgb(128, 128, 128)' stroke-dasharray=' 2,4'  d='M54.3,197.2 L61.0,197.2  h0.01'/>	<g transform="translate(48.0,200.6)" style="stroke:none; fill:rgb(128,128,128); font-family:URW Bookman L; font-size:9.00pt; text-anchor:end">
		<text> 20</text>
	</g>
</g>
<g style="fill:none; color:gray; stroke:rgb(128, 128, 128); stroke-width:0.50; stroke-linecap:round; stroke-linejoin:round">
</g>
<g style="fill:none; color:blue; stroke:currentColor; stroke-width:0.50; stroke-linecap:round; stroke-linejoin:round">
	<path stroke='rgb(128, 128, 128)' stroke-dasharray=' 2,4' class="gridline"  d='M54.3,178.7 L301.0,178.7  h0.01'/></g>
<g style="fill:none; color:blue; stroke:rgb(128, 128, 128); stroke-width:1.00; stroke-linecap:round; stroke-linejoin:round">
</g>
<g style="fill:none; color:gray; stroke:currentColor; stroke-width:1.00; stroke-linecap:round; stroke-linejoin:round">
	<path stroke='rgb(128, 128, 128)' stroke-dasharray=' 2,4'  d='M54.3,178.7 L61.0,178.7  h0.01'/>	<g transform="translate(48.0,182.1)" style="stroke:none; fill:rgb(128,128,128); font-family:URW Bookman L; font-size:9.00pt; text-anchor:end">
		<text> 40</text>
	</g>
</g>
<g style="fill:none; color:gray; stroke:rgb(128, 128, 128); stroke-width:0.50; stroke-linecap:round; stroke-linejoin:round">
</g>
<g style="fill:none; color:blue; stroke:currentColor; stroke-width:0.50; stroke-linecap:round; stroke-linejoin:round">
	<path stroke='rgb(128, 128, 128)' stroke-dasharray=' 2,4' class="gridline"  d='M54.3,160.3 L301.0,160.3  h0.01'/></g>
<g style="fill:none; color:blue; stroke:rgb(128, 128, 128); stroke-width:1.00; stroke-linecap:round; stroke-linejoin:round">
</g>
<g style="fill:none; color:gray; stroke:currentColor; stroke-width:1.00; stroke-linecap:round; stroke-linejoin:round">
	<path stroke='rgb(128, 128, 128)' stroke-dasharray=' 2,4'  d='M54.3,160.3 L61.0,160.3  h0.01'/>	<g transform="translate(48.0,163.7)" style="stroke:none; fill:rgb(128,128,128); font-family:URW Bookman L; font-size:9.00pt; text-anchor:end">
		<text> 60</text>
	</g>
</g>
<g style="fill:none; color:gray; stroke:rgb(128, 128, 128); stroke-width:0.50; stroke-linecap:round; stroke-linejoin:round">
</g>
<g style="fill:none; color:blue; stroke:currentColor; stroke-width:0.50; stroke-linecap:round; stroke-linejoin:round">
	<path stroke='rgb(128, 128, 128)' stroke-dasharray=' 2,4' class="gridline"  d='M54.3,141.8 L301.0,141.8  h0.01'/></g>
<g style="fill:none; color:blue; stroke:rgb(128, 128, 128); stroke-width:1.00; stroke-linecap:round; stroke-linejoin:round">
</g>
<g style="fill:none; color:gray; stroke:currentColor; stroke-width:1.00; stroke-linecap:round; stroke-linejoin:round">
	<path stroke='rgb(128, 128, 128)' stroke-dasharray=' 2,4'  d='M54.3,141.8 L61.0,141.8  h0.01'/>	<g transform="translate(48.0,145.2)" style="stroke:none; fill:rgb(128,128,128); font-family:URW Bookman L; font-size:9.00pt; text-anchor:end">
		<text> 80</text>
	</g>
</g>
<g style="fill:none; color:gray; stroke:rgb(128, 128, 128); stroke-width:0.50; stroke-linecap:round; stroke-linejoin:round">
</g>
<g style="fill:none; color:blue; stroke:currentColor; stroke-width:0.50; stroke-linecap:round; stroke-linejoin:round">
	<path stroke='rgb(128, 128, 128)' stroke-dasharray=' 2,4' class="gridline"  d='M54.3,123.4 L301.0,123.4  h0.01'/></g>
<g style="fill:none; color:blue; stroke:rgb(128, 128, 128); stroke-width:1.00; stroke-linecap:round; stroke-linejoin:round">
</g>
<g style="fill:none; color:gray; stroke:currentColor; stroke-width:1.00; stroke-linecap:round; stroke-linejoin:round">
	<path stroke='rgb(128, 128, 128)' stroke-dasharray=' 2,4'  d='M54.3,123.4 L61.0,123.4  h0.01'/>	<g transform="translate(48.0,126.8)" style="stroke:none; fill:rgb(128,128,128); font-family:URW Bookman L; font-size:9.00pt; text-anchor:end">
		<text> 100</text>
	</g>
</g>
<g style="fill:none; color:gray; stroke:rgb(128, 128, 128); stroke-width:0.50; stroke-linecap:round; stroke-linejoin:round">
</g>
<g style="fill:none; color:blue; stroke:currentColor; stroke-width:0.50; stroke-linecap:round; stroke-linejoin:round">
	<path stroke='rgb(128, 128, 128)' stroke-dasharray=' 2,4' class="gridline"  d='M54.3,104.9 L301.0,104.9  h0.01'/></g>
<g style="fill:none; color:blue; stroke:rgb(128, 128, 128); stroke-width:1.00; stroke-linecap:round; stroke-linejoin:round">
</g>
<g style="fill:none; color:gray; stroke:currentColor; stroke-width:1.00; stroke-linecap:round; stroke-linejoin:round">
	<path stroke='rgb(128, 128, 128)' stroke-dasharray=' 2,4'  d='M54.3,104.9 L61.0,104.9  h0.01'/>	<g transform="translate(48.0,108.3)" style="stroke:none; fill:rgb(128,128,128); font-family:URW Bookman L; font-size:9.00pt; text-anchor:end">
		<text> 120</text>
	</g>
</g>
<g style="fill:none; color:gray; stroke:rgb(128, 128, 128); stroke-width:0.50; stroke-linecap:round; stroke-linejoin:round">
</g>
<g style="fill:none; color:blue; stroke:currentColor; stroke-width:0.50; stroke-linecap:round; stroke-linejoin:round">
	<path stroke='rgb(128, 128, 128)' stroke-dasharray=' 2,4' class="gridline"  d='M54.3,86.5 L301.0,86.5  h0.01'/></g>
<g style="fill:none; color:blue; stroke:rgb(128, 128, 128); stroke-width:1.00; stroke-linecap:round; stroke-linejoin:round">
</g>
<g style="fill:none; color:gray; stroke:currentColor; stroke-width:1.00; stroke-linecap:round; stroke-linejoin:round">
	<path stroke='rgb(128, 128, 128)' stroke-dasharray=' 2,4'  d='M54.3,86.5 L61.0,86.5  h0.01'/>	<g transform="translate(48.0,89.9)" style="stroke:none; fill:rgb(128,128,128); font-family:URW Bookman L; font-size:9.00pt; text-anchor:end">
		<text> 140</text>
	</g>
</g>
<g style="fill:none; color:gray; stroke:rgb(128, 128, 128); stroke-width:0.50; stroke-linecap:round; stroke-linejoin:round">
</g>
<g style="fill:none; color:blue; stroke:currentColor; stroke-width:0.50; stroke-linecap:round; stroke-linejoin:round">
	<path stroke='rgb(128, 128, 128)' stroke-dasharray=' 2,4' class="gridline"  d='M54.3,68.0 L218.7,68.0 M294.7,68.0 L301.0,68.0  h0.01'/></g>
<g style="fill:none; color:blue; stroke:rgb(128, 128, 128); stroke-width:1.00; stroke-linecap:round; stroke-linejoin:round">
</g>
<g style="fill:none; color:gray; stroke:currentColor; stroke-width:1.00; stroke-linecap:round; stroke-linejoin:round">
	<path stroke='rgb(128, 128, 128)' stroke-dasharray=' 2,4'  d='M54.3,68.0 L61.0,68.0  h0.01'/>	<g transform="translate(48.0,71.4)" style="stroke:none; fill:rgb(128,128,128); font-family:URW Bookman L; font-size:9.00pt; text-anchor:end">
		<text> 160</text>
	</g>
</g>
<g style="fill:none; color:gray; stroke:rgb(128, 128, 128); stroke-width:0.50; stroke-linecap:round; stroke-linejoin:round">
</g>
<g style="fill:none; color:blue; stroke:currentColor; stroke-width:0.50; stroke-linecap:round; stroke-linejoin:round">
	<path stroke='rgb(128, 128, 128)' stroke-dasharray=' 2,4' class="gridline"  d='M54.3,49.6 L218.7,49.6 M294.7,49.6 L301.0,49.6  h0.01'/></g>
<g style="fill:none; color:blue; stroke:rgb(128, 128, 128); stroke-width:1.00; stroke-linecap:round; stroke-linejoin:round">
</g>
<g style="fill:none; color:gray; stroke:currentColor; stroke-width:1.00; stroke-linecap:round; stroke-linejoin:round">
	<path stroke='rgb(128, 128, 128)' stroke-dasharray=' 2,4'  d='M54.3,49.6 L61.0,49.6  h0.01'/>	<g transform="translate(48.0,53.0)" style="stroke:none; fill:rgb(128,128,128); font-family:URW Bookman L; font-size:9.00pt; text-anchor:end">
		<text> 180</text>
	</g>
</g>
<g style="fill:none; color:gray; stroke:rgb(128, 128, 128); stroke-width:0.50; stroke-linecap:round; stroke-linejoin:round">
</g>
<g style="fill:none; color:blue; stroke:currentColor; stroke-width:0.50; stroke-linecap:round; stroke-linejoin:round">
	<path stroke='rgb(128, 128, 128)' stroke-dasharray=' 2,4' class="gridline"  d='M54.3,31.1 L218.7,31.1 M294.7,31.1 L301.0,31.1  h0.01'/></g>
<g style="fill:none; color:blue; stroke:rgb(128, 128, 128); stroke-width:1.00; stroke-linecap:round; stroke-linejoin:round">
</g>
<g style="fill:none; color:gray; stroke:currentColor; stroke-width:1.00; stroke-linecap:round; stroke-linejoin:round">
	<path stroke='rgb(128, 128, 128)' stroke-dasharray=' 2,4'  d='M54.3,31.1 L61.0,31.1  h0.01'/>	<g transform="translate(48.0,34.5)" style="stroke:none; fill:rgb(128,128,128); font-family:URW Bookman L; font-size:9.00pt; text-anchor:end">
		<text> 200</text>
	</g>
</g>
<g style="fill:none; color:gray; stroke:rgb(128, 128, 128); stroke-width:0.50; stroke-linecap:round; stroke-linejoin:round">
</g>
<g style="fill:none; color:blue; stroke:currentColor; stroke-width:0.50; stroke-linecap:round; stroke-linejoin:round">
	<path stroke='rgb(128, 128, 128)' stroke-dasharray=' 2,4' class="gridline"  d='M54.3,12.7 L301.0,12.7  h0.01'/></g>
<g style="fill:none; color:blue; stroke:rgb(128, 128, 128); stroke-width:1.00; stroke-linecap:round; stroke-linejoin:round">
</g>
<g style="fill:none; color:gray; stroke:currentColor; stroke-width:1.00; stroke-linecap:round; stroke-linejoin:round">
	<path stroke='rgb(128, 128, 128)' stroke-dasharray=' 2,4'  d='M54.3,12.7 L61.0,12.7  h0.01'/>	<g transform="translate(48.0,16.1)" style="stroke:none; fill:rgb(128,128,128); font-family:URW Bookman L; font-size:9.00pt; text-anchor:end">
		<text> 220</text>
	</g>
</g>
<g style="fill:none; color:gray; stroke:rgb(128, 128, 128); stroke-width:0.50; stroke-linecap:round; stroke-linejoin:round">
</g>
<g style="fill:none; color:blue; stroke:currentColor; stroke-width:0.50; stroke-linecap:round; stroke-linejoin:round">
	<path stroke='rgb(128, 128, 128)' stroke-dasharray=' 2,4' class="gridline"  d='M54.3,197.2 L54.3,12.7  h0.01'/></g>
<g style="fill:none; color:blue; stroke:rgb(128, 128, 128); stroke-width:1.00; stroke-linecap:round; stroke-linejoin:round">
</g>
<g style="fill:none; color:gray; stroke:currentColor; stroke-width:1.00; stroke-linecap:round; stroke-linejoin:round">
	<path stroke='rgb(128, 128, 128)' stroke-dasharray=' 2,4'  d='M54.3,197.2 L54.3,190.5  h0.01'/>	<g transform="translate(54.3,214.0)" style="stroke:none; fill:rgb(128,128,128); font-family:URW Bookman L; font-size:9.00pt; text-anchor:middle">
		<text> 0</text>
	</g>
</g>
<g style="fill:none; color:gray; stroke:rgb(128, 128, 128); stroke-width:0.50; stroke-linecap:round; stroke-linejoin:round">
</g>
<g style="fill:none; color:blue; stroke:currentColor; stroke-width:0.50; stroke-linecap:round; stroke-linejoin:round">
	<path stroke='rgb(128, 128, 128)' stroke-dasharray=' 2,4' class="gridline"  d='M79.0,197.2 L79.0,12.7  h0.01'/></g>
<g style="fill:none; color:blue; stroke:rgb(128, 128, 128); stroke-width:1.00; stroke-linecap:round; stroke-linejoin:round">
</g>
<g style="fill:none; color:gray; stroke:currentColor; stroke-width:1.00; stroke-linecap:round; stroke-linejoin:round">
	<path stroke='rgb(128, 128, 128)' stroke-dasharray=' 2,4'  d='M79.0,197.2 L79.0,190.5  h0.01'/>	<g transform="translate(79.0,214.0)" style="stroke:none; fill:rgb(128,128,128); font-family:URW Bookman L; font-size:9.00pt; text-anchor:middle">
		<text> 2</text>
	</g>
</g>
<g style="fill:none; color:gray; stroke:rgb(128, 128, 128); stroke-width:0.50; stroke-linecap:round; stroke-linejoin:round">
</g>
<g style="fill:none; color:blue; stroke:currentColor; stroke-width:0.50; stroke-linecap:round; stroke-linejoin:round">
	<path stroke='rgb(128, 128, 128)' stroke-dasharray=' 2,4' class="gridline"  d='M103.6,197.2 L103.6,12.7  h0.01'/></g>
<g style="fill:none; color:blue; stroke:rgb(128, 128, 128); stroke-width:1.00; stroke-linecap:round; stroke-linejoin:round">
</g>
<g style="fill:none; color:gray; stroke:currentColor; stroke-width:1.00; stroke-linecap:round; stroke-linejoin:round">
	<path stroke='rgb(128, 128, 128)' stroke-dasharray=' 2,4'  d='M103.6,197.2 L103.6,190.5  h0.01'/>	<g transform="translate(103.6,214.0)" style="stroke:none; fill:rgb(128,128,128); font-family:URW Bookman L; font-size:9.00pt; text-anchor:middle">
		<text> 4</text>
	</g>
</g>
<g style="fill:none; color:gray; stroke:rgb(128, 128, 128); stroke-width:0.50; stroke-linecap:round; stroke-linejoin:round">
</g>
<g style="fill:none; color:blue; stroke:currentColor; stroke-width:0.50; stroke-linecap:round; stroke-linejoin:round">
	<path stroke='rgb(128, 128, 128)' stroke-dasharray=' 2,4' class="gridline"  d='M128.3,197.2 L128.3,12.7  h0.01'/></g>
<g style="fill:none; color:blue; stroke:rgb(128, 128, 128); stroke-width:1.00; stroke-linecap:round; stroke-linejoin:round">
</g>
<g style="fill:none; color:gray; stroke:currentColor; stroke-width:1.00; stroke-linecap:round; stroke-linejoin:round">
	<path stroke='rgb(128, 128, 128)' stroke-dasharray=' 2,4'  d='M128.3,197.2 L128.3,190.5  h0.01'/>	<g transform="translate(128.3,214.0)" style="stroke:none; fill:rgb(128,128,128); font-family:URW Bookman L; font-size:9.00pt; text-anchor:middle">
		<text> 6</text>
	</g>
</g>
<g style="fill:none; color:gray; stroke:rgb(128, 128, 128); stroke-width:0.50; stroke-linecap:round; stroke-linejoin:round">
</g>
<g style="fill:none; color:blue; stroke:currentColor; stroke-width:0.50; stroke-linecap:round; stroke-linejoin:round">
	<path stroke='rgb(128, 128, 128)' stroke-dasharray=' 2,4' class="gridline"  d='M153.0,197.2 L153.0,12.7  h0.01'/></g>
<g style="fill:none; color:blue; stroke:rgb(128, 128, 128); stroke-width:1.00; stroke-linecap:round; stroke-linejoin:round">
</g>
<g style="fill:none; color:gray; stroke:currentColor; stroke-width:1.00; stroke-linecap:round; stroke-linejoin:round">
	<path stroke='rgb(128, 128, 128)' stroke-dasharray=' 2,4'  d='M153.0,197.2 L153.0,190.5  h0.01'/>	<g transform="translate(153.0,214.0)" style="stroke:none; fill:rgb(128,128,128); font-family:URW Bookman L; font-size:9.00pt; text-anchor:middle">
		<text> 8</text>
	</g>
</g>
<g style="fill:none; color:gray; stroke:rgb(128, 128, 128); stroke-width:0.50; stroke-linecap:round; stroke-linejoin:round">
</g>
<g style="fill:none; color:blue; stroke:currentColor; stroke-width:0.50; stroke-linecap:round; stroke-linejoin:round">
	<path stroke='rgb(128, 128, 128)' stroke-dasharray=' 2,4' class="gridline"  d='M177.7,197.2 L177.7,12.7  h0.01'/></g>
<g style="fill:none; color:blue; stroke:rgb(128, 128, 128); stroke-width:1.00; stroke-linecap:round; stroke-linejoin:round">
</g>
<g style="fill:none; color:gray; stroke:currentColor; stroke-width:1.00; stroke-linecap:round; stroke-linejoin:round">
	<path stroke='rgb(128, 128, 128)' stroke-dasharray=' 2,4'  d='M177.7,197.2 L177.7,190.5  h0.01'/>	<g transform="translate(177.7,214.0)" style="stroke:none; fill:rgb(128,128,128); font-family:URW Bookman L; font-size:9.00pt; text-anchor:middle">
		<text> 10</text>
	</g>
</g>
<g style="fill:none; color:gray; stroke:rgb(128, 128, 128); stroke-width:0.50; stroke-linecap:round; stroke-linejoin:round">
</g>
<g style="fill:none; color:blue; stroke:currentColor; stroke-width:0.50; stroke-linecap:round; stroke-linejoin:round">
	<path stroke='rgb(128, 128, 128)' stroke-dasharray=' 2,4' class="gridline"  d='M202.3,197.2 L202.3,12.7  h0.01'/></g>
<g style="fill:none; color:blue; stroke:rgb(128, 128, 128); stroke-width:1.00; stroke-linecap:round; stroke-linejoin:round">
</g>
<g style="fill:none; color:gray; stroke:currentColor; stroke-width:1.00; stroke-linecap:round; stroke-linejoin:round">
	<path stroke='rgb(128, 128, 128)' stroke-dasharray=' 2,4'  d='M202.3,197.2 L202.3,190.5  h0.01'/>	<g transform="translate(202.3,214.0)" style="stroke:none; fill:rgb(128,128,128); font-family:URW Bookman L; font-size:9.00pt; text-anchor:middle">
		<text> 12</text>
	</g>
</g>
<g style="fill:none; color:gray; stroke:rgb(128, 128, 128); stroke-width:0.50; stroke-linecap:round; stroke-linejoin:round">
</g>
<g style="fill:none; color:blue; stroke:currentColor; stroke-width:0.50; stroke-linecap:round; stroke-linejoin:round">
	<path stroke='rgb(128, 128, 128)' stroke-dasharray=' 2,4' class="gridline"  d='M227.0,197.2 L227.0,73.0 M227.0,19.4 L227.0,12.7  h0.01'/></g>
<g style="fill:none; color:blue; stroke:rgb(128, 128, 128); stroke-width:1.00; stroke-linecap:round; stroke-linejoin:round">
</g>
<g style="fill:none; color:gray; stroke:currentColor; stroke-width:1.00; stroke-linecap:round; stroke-linejoin:round">
	<path stroke='rgb(128, 128, 128)' stroke-dasharray=' 2,4'  d='M227.0,197.2 L227.0,190.5  h0.01'/>	<g transform="translate(227.0,214.0)" style="stroke:none; fill:rgb(128,128,128); font-family:URW Bookman L; font-size:9.00pt; text-anchor:middle">
		<text> 14</text>
	</g>
</g>
<g style="fill:none; color:gray; stroke:rgb(128, 128, 128); stroke-width:0.50; stroke-linecap:round; stroke-linejoin:round">
</g>
<g style="fill:none; color:blue; stroke:currentColor; stroke-width:0.50; stroke-linecap:round; stroke-linejoin:round">
	<path stroke='rgb(128, 128, 128)' stroke-dasharray=' 2,4' class="gridline"  d='M251.7,197.2 L251.7,73.0 M251.7,19.4 L251.7,12.7  h0.01'/></g>
<g style="fill:none; color:blue; stroke:rgb(128, 128, 128); stroke-width:1.00; stroke-linecap:round; stroke-linejoin:round">
</g>
<g style="fill:none; color:gray; stroke:currentColor; stroke-width:1.00; stroke-linecap:round; stroke-linejoin:round">
	<path stroke='rgb(128, 128, 128)' stroke-dasharray=' 2,4'  d='M251.7,197.2 L251.7,190.5  h0.01'/>	<g transform="translate(251.7,214.0)" style="stroke:none; fill:rgb(128,128,128); font-family:URW Bookman L; font-size:9.00pt; text-anchor:middle">
		<text> 16</text>
	</g>
</g>
<g style="fill:none; color:gray; stroke:rgb(128, 128, 128); stroke-width:0.50; stroke-linecap:round; stroke-linejoin:round">
</g>
<g style="fill:none; color:blue; stroke:currentColor; stroke-width:0.50; stroke-linecap:round; stroke-linejoin:round">
	<path stroke='rgb(128, 128, 128)' stroke-dasharray=' 2,4' class="gridline"  d='M276.3,197.2 L276.3,73.0 M276.3,19.4 L276.3,12.7  h0.01'/></g>
<g style="fill:none; color:blue; stroke:rgb(128, 128, 128); stroke-width:1.00; stroke-linecap:round; stroke-linejoin:round">
</g>
<g style="fill:none; color:gray; stroke:currentColor; stroke-width:1.00; stroke-linecap:round; stroke-linejoin:round">
	<path stroke='rgb(128, 128, 128)' stroke-dasharray=' 2,4'  d='M276.3,197.2 L276.3,190.5  h0.01'/>	<g transform="translate(276.3,214.0)" style="stroke:none; fill:rgb(128,128,128); font-family:URW Bookman L; font-size:9.00pt; text-anchor:middle">
		<text> 18</text>
	</g>
</g>
<g style="fill:none; color:gray; stroke:rgb(128, 128, 128); stroke-width:0.50; stroke-linecap:round; stroke-linejoin:round">
</g>
<g style="fill:none; color:blue; stroke:currentColor; stroke-width:0.50; stroke-linecap:round; stroke-linejoin:round">
	<path stroke='rgb(128, 128, 128)' stroke-dasharray=' 2,4' class="gridline"  d='M301.0,197.2 L301.0,12.7  h0.01'/></g>
<g style="fill:none; color:blue; stroke:rgb(128, 128, 128); stroke-width:1.00; stroke-linecap:round; stroke-linejoin:round">
</g>
<g style="fill:none; color:gray; stroke:currentColor; stroke-width:1.00; stroke-linecap:round; stroke-linejoin:round">
	<path stroke='rgb(128, 128, 128)' stroke-dasharray=' 2,4'  d='M301.0,197.2 L301.0,190.5  h0.01'/>	<g transform="translate(301.0,214.0)" style="stroke:none; fill:rgb(128,128,128); font-family:URW Bookman L; font-size:9.00pt; text-anchor:middle">
		<text> 20</text>
	</g>
	<path stroke='rgb(128, 128, 128)' stroke-dasharray=' 2,4'  d='M54.3,12.7 L54.3,197.2 L301.0,197.2 M301.0,12.7 M54.3,12.7  h0.01'/>	<g transform="translate(13.2,105.0) rotate(270)" style="stroke:none; fill:black; font-family:URW Bookman L; font-size:9.00pt; text-anchor:middle">
		<text>Error (%)</text>
	</g>
</g>
<g style="fill:none; color:black; stroke:currentColor; stroke-width:1.00; stroke-linecap:round; stroke-linejoin:round">
	<g transform="translate(177.6,234.1)" style="stroke:none; fill:black; font-family:URW Bookman L; font-size:9.00pt; text-anchor:middle">
		<text>Time (s)</text>
	</g>
</g>
<g style="fill:none; color:gray; stroke:currentColor; stroke-width:1.00; stroke-linecap:round; stroke-linejoin:round">
</g>
	<g id="gnuplot_plot_1" ><title>gnuplot_plot_1</title>
<g style="fill:none; color:red; stroke:currentColor; stroke-width:1.00; stroke-linecap:round; stroke-linejoin:round">
	<g transform="translate(250.2,29.5)" style="stroke:none; fill:black; font-family:URW Bookman L; font-size:9.00pt; text-anchor:end">
		<text>App 1</text>
	</g>
	<path  d='M256.5,26.1 L288.4,26.1 M55.8,190.6 L57.3,190.6 L58.9,190.6 L60.4,190.6 L61.9,190.6 L63.4,190.6 
		L64.9,190.6 L66.4,190.6 L68.8,190.6 L69.6,139.4 L70.6,162.0 L71.6,162.0 L72.6,162.0 L73.6,162.0 
		L74.6,162.0 L75.6,162.0 L76.6,162.0 L77.6,162.0 L78.6,162.0 L79.6,162.0 L80.6,162.0 L81.6,162.0 
		L82.7,162.0 L83.7,162.0 L84.7,162.0 L85.7,162.0 L86.7,162.0 L87.7,162.0 L88.7,162.0 L89.7,162.0 
		L90.7,162.0 L91.9,162.0 L92.5,101.6 L93.3,101.6 L93.6,16.1 L94.1,101.6 L94.6,101.6 L95.1,101.6 
		L95.6,101.6 L96.1,101.6 L96.6,101.6 L97.1,101.6 L97.6,101.6 L98.1,101.6 L98.6,101.6 L99.1,101.6 
		L99.6,101.6 L100.1,101.6 L100.6,101.6 L101.1,101.6 L101.6,101.6 L102.1,101.6 L102.6,101.6 L103.1,101.6 
		L103.6,101.6 L104.1,101.6 L104.6,101.6 L105.1,101.6 L105.6,101.6 L106.1,101.6 L106.6,101.6 L107.1,101.6 
		L107.6,101.6 L108.1,101.6 L108.6,101.6 L109.1,101.6 L109.6,101.6 L110.1,101.6 L110.6,101.6 L111.1,101.6 
		L111.6,101.6 L112.1,101.6 L112.6,101.6 L113.1,101.6 L113.6,101.6 L114.1,101.6 L114.6,101.6 L115.2,101.6 
		L115.7,101.6 L116.2,101.6 L117.0,101.6 L117.4,16.1 L117.9,16.1 L118.3,16.1 L118.6,16.1 L118.9,16.1 
		L119.3,16.1 L119.5,16.1 L120.0,101.6 L120.5,101.6 L121.0,101.6 L121.5,101.6 L122.0,101.6 L122.5,101.6 
		L123.0,101.6 L123.5,101.6 L124.0,101.6 L124.5,101.6 L125.0,101.6 L125.5,101.6 L126.0,101.6 L126.5,101.6 
		L127.0,101.6 L127.5,101.6 L128.0,101.6 L128.5,101.6 L129.0,101.6 L129.5,101.6 L130.0,101.6 L130.5,101.6 
		L131.0,101.6 L131.5,101.6 L132.0,101.6 L132.5,101.6 L133.0,101.6 L133.5,101.6 L134.0,101.6 L134.5,101.6 
		L135.0,101.6 L135.6,101.6 L136.1,101.6 L136.6,101.6 L137.1,101.6 L137.5,101.6 L138.0,101.6 L138.5,101.6 
		L139.1,101.6 L139.5,101.6 L140.0,101.6 L140.5,101.6 L141.0,101.6 L141.5,101.6 L142.0,101.6 L142.5,101.6 
		L143.0,101.6 L143.5,101.6 L144.0,101.6 L144.6,101.6 L145.1,101.6 L145.6,101.6 L146.1,101.6 L146.6,101.6 
		L147.1,101.6 L147.6,101.6 L148.1,101.6 L148.6,101.6 L149.1,101.6 L149.6,101.6 L150.1,101.6 L150.6,101.6 
		L151.1,101.6 L151.6,101.6 L152.1,101.6 L152.6,101.6 L153.1,101.6 L153.6,101.6 L154.1,101.6 L154.6,101.6 
		L155.1,101.6 L155.6,101.6 L156.1,101.6 L156.6,101.6 L157.1,101.6 L157.6,101.6 L158.1,101.6 L158.6,101.6 
		L159.1,101.6 L159.6,101.6 L160.1,101.6 L160.6,101.6 L161.1,101.6 L161.6,101.6 L162.1,101.6 L162.6,101.6 
		L163.1,101.6 L163.6,101.6 L164.1,101.6 L164.6,101.6 L165.1,101.6 L165.6,101.6 L166.1,101.6 L166.6,101.6 
		L167.1,101.6 L167.6,101.6 L168.1,101.6 L168.6,101.6 L169.1,101.6 L169.6,101.6 L170.1,101.6 L170.6,101.6 
		L171.1,101.6 L171.6,101.6 L172.2,101.6 L172.7,101.6 L173.2,101.6 L173.7,101.6 L174.2,101.6 L174.7,101.6 
		L175.2,101.6 L175.7,101.6  h0.01'/></g>
	</g>
	<g id="gnuplot_plot_2" ><title>gnuplot_plot_2</title>
<g style="fill:none; color:green; stroke:currentColor; stroke-width:1.00; stroke-linecap:round; stroke-linejoin:round">
	<g transform="translate(250.2,42.9)" style="stroke:none; fill:black; font-family:URW Bookman L; font-size:9.00pt; text-anchor:end">
		<text>App 2</text>
	</g>
	<path stroke-dasharray=' 5,8'  d='M256.5,39.5 L288.4,39.5 M68.8,190.6 L69.6,139.4 L70.6,162.0 L71.6,162.0 L72.6,162.0 L73.6,162.0 
		L74.6,162.0 L75.6,162.0 L76.6,162.0 L77.6,162.0 L78.6,162.0 L79.6,162.0 L80.6,162.0 L81.6,162.0 
		L82.6,162.0 L83.6,162.0 L84.6,162.0 L85.6,162.0 L86.6,162.0 L87.6,162.0 L88.6,162.0 L89.6,162.0 
		L90.6,162.0 L91.8,162.0 L92.3,101.6 L93.1,101.6 L93.3,16.1 L93.8,101.6 L94.3,101.6 L94.8,101.6 
		L95.3,101.6 L95.8,101.6 L96.3,101.6 L96.8,101.6 L97.3,101.6 L97.8,101.6 L98.3,101.6 L98.8,101.6 
		L99.3,101.6 L99.8,101.6 L100.3,101.6 L100.8,101.6 L101.3,101.6 L101.8,101.6 L102.3,101.6 L102.8,101.6 
		L103.3,101.6 L103.8,101.6 L104.3,101.6 L104.8,101.6 L105.3,101.6 L105.8,101.6 L106.3,101.6 L106.8,101.6 
		L107.3,101.6 L107.8,101.6 L108.3,101.6 L108.8,101.6 L109.3,101.6 L109.8,101.6 L110.3,101.6 L110.8,101.6 
		L111.3,101.6 L111.8,101.6 L112.3,101.6 L112.8,101.6 L113.3,101.6 L113.8,101.6 L114.3,101.6 L114.8,101.6 
		L115.3,101.6 L115.8,101.6 L116.6,101.6 L117.0,16.1 L117.4,16.1 L117.9,16.1 L118.2,16.1 L118.5,16.1 
		L118.8,16.1 L119.1,16.1 L119.4,16.1 L119.9,101.6 L120.4,101.6 L120.9,101.6 L121.4,101.6 L121.9,101.6 
		L122.4,101.6 L122.9,101.6 L123.4,101.6 L123.9,101.6 L124.4,101.6 L124.9,101.6 L125.4,101.6 L125.9,101.6 
		L126.4,101.6 L126.9,101.6 L127.4,101.6 L127.9,101.6 L128.4,101.6 L128.9,101.6 L129.4,101.6 L129.9,101.6 
		L130.4,101.6 L130.9,101.6 L131.4,101.6 L131.9,101.6 L132.4,101.6 L132.9,101.6 L133.4,101.6 L133.9,101.6 
		L134.4,101.6 L134.9,101.6 L135.4,101.6 L135.9,101.6 L136.4,101.6 L136.9,101.6 L137.4,101.6 L137.9,101.6 
		L138.4,101.6 L138.9,101.6 L139.4,101.6 L139.9,101.6 L140.4,101.6 L140.9,101.6 L141.4,101.6 L141.9,101.6 
		L142.4,101.6 L142.9,101.6 L143.4,101.6 L143.9,101.6 L144.4,101.6 L144.9,101.6 L145.4,101.6 L145.9,101.6 
		L146.4,101.6 L146.9,101.6 L147.4,101.6 L147.9,101.6 L148.4,101.6 L148.9,101.6 L149.4,101.6 L149.9,101.6 
		L150.4,101.6 L150.9,101.6 L151.4,101.6 L151.9,101.6 L152.4,101.6 L152.9,101.6 L153.4,101.6 L153.9,101.6 
		L154.4,101.6 L154.9,101.6 L155.4,101.6 L155.9,101.6 L156.4,101.6 L156.9,101.6 L157.4,101.6 L157.9,101.6 
		L158.4,101.6 L158.9,101.6 L159.4,101.6 L159.9,101.6 L160.4,101.6 L160.9,101.6 L161.4,101.6 L161.9,101.6 
		L162.4,101.6 L162.9,101.6 L163.4,101.6 L163.9,101.6 L164.4,101.6 L164.9,101.6 L165.4,101.6 L165.9,101.6 
		L166.4,101.6 L166.9,101.6 L167.4,101.6 L167.9,101.6 L168.4,101.6 L168.9,101.6 L169.4,101.6 L169.9,101.6 
		L170.4,101.6 L170.9,101.6 L171.4,101.6 L171.9,101.6 L172.4,101.6 L172.9,101.6 L173.4,101.6 L173.9,101.6 
		L174.4,101.6 L174.9,101.6 L175.4,101.6 L175.9,101.6 L176.4,101.6 L176.9,101.6 L177.4,101.6 L177.9,101.6 
		L178.4,101.6 L178.9,101.6 L179.4,101.6 L179.9,101.6 L180.4,101.6 L180.9,101.6 L181.4,101.6 L181.9,101.6 
		L182.4,101.6 L182.9,101.6 L183.4,101.6 L183.9,101.6 L184.4,101.6 L184.9,101.6 L185.4,101.6 L185.9,101.6 
		L186.4,101.6 L186.9,101.6 L187.4,101.6 L187.9,101.6 L188.4,101.6 L188.9,101.6 L189.4,101.6 L189.9,101.6 
		L190.4,101.6 L190.9,101.6 L191.4,101.6 L191.9,101.6 L192.4,101.6 L192.9,101.6 L193.4,101.6 L193.9,101.6 
		L194.4,101.6 L194.9,101.6 L195.4,101.6 L195.9,101.6 L196.4,101.6 L196.9,101.6 L197.4,101.6 L197.9,101.6 
		L198.4,101.6 L198.9,101.6  h0.01'/></g>
	</g>
	<g id="gnuplot_plot_3" ><title>gnuplot_plot_3</title>
<g style="fill:none; color:blue; stroke:currentColor; stroke-width:1.00; stroke-linecap:round; stroke-linejoin:round">
	<g transform="translate(250.2,56.3)" style="stroke:none; fill:black; font-family:URW Bookman L; font-size:9.00pt; text-anchor:end">
		<text>App 3</text>
	</g>
	<path stroke-dasharray=' 2,4'  d='M256.5,52.9 L288.4,52.9 M93.5,190.6 L94.3,139.4 L95.3,162.0 L96.3,162.0 L97.3,162.0 L98.4,162.0 
		L99.4,162.0 L100.4,162.0 L101.4,162.0 L102.4,162.0 L103.4,162.0 L104.4,162.0 L105.4,162.0 L106.4,162.0 
		L107.4,162.0 L108.4,162.0 L109.4,162.0 L110.5,162.0 L111.5,162.0 L112.5,162.0 L113.5,162.0 L114.5,162.0 
		L115.5,162.0 L116.8,162.0 L117.2,16.1 L117.7,16.1 L118.0,16.1 L118.4,16.1 L118.7,16.1 L119.0,16.1 
		L119.3,16.1 L119.8,101.6 L120.3,101.6 L120.8,101.6 L121.3,101.6 L121.8,101.6 L122.3,101.6 L122.8,101.6 
		L123.3,101.6 L123.8,101.6 L124.3,101.6 L124.8,101.6 L125.3,101.6 L125.8,101.6 L126.3,101.6 L126.8,101.6 
		L127.3,101.6 L127.8,101.6 L128.3,101.6 L128.8,101.6 L129.3,101.6 L129.8,101.6 L130.3,101.6 L130.8,101.6 
		L131.3,101.6 L131.8,101.6 L132.3,101.6 L132.8,101.6 L133.3,101.6 L133.8,101.6 L134.3,101.6 L134.8,101.6 
		L135.3,101.6 L135.9,101.6 L136.4,101.6 L136.9,101.6 L137.4,101.6 L137.9,101.6 L138.4,101.6 L138.9,101.6 
		L139.4,101.6 L139.9,101.6 L140.4,101.6 L140.9,101.6 L141.4,101.6 L141.9,101.6 L142.4,101.6 L142.9,101.6 
		L143.4,101.6 L143.9,101.6 L144.4,101.6 L144.9,101.6 L145.4,101.6 L145.9,101.6 L146.4,101.6 L146.9,101.6 
		L147.4,101.6 L147.9,101.6 L148.4,101.6 L148.9,101.6 L149.4,101.6 L149.9,101.6 L150.4,101.6 L150.9,101.6 
		L151.4,101.6 L151.9,101.6 L152.4,101.6 L152.9,101.6 L153.4,101.6 L153.9,101.6 L154.4,101.6 L154.9,101.6 
		L155.4,101.6 L155.9,101.6 L156.4,101.6 L156.9,101.6 L157.4,101.6 L157.9,101.6 L158.4,101.6 L158.9,101.6 
		L159.4,101.6 L159.9,101.6 L160.4,101.6 L160.9,101.6 L161.4,101.6 L161.9,101.6 L162.4,101.6 L162.9,101.6 
		L163.4,101.6 L163.9,101.6 L164.4,101.6 L164.9,101.6 L165.4,101.6 L165.9,101.6 L166.4,101.6 L166.9,101.6 
		L167.4,101.6 L167.9,101.6 L168.4,101.6 L168.9,101.6 L169.4,101.6 L169.9,101.6 L170.4,101.6 L170.9,101.6 
		L171.4,101.6 L171.9,101.6 L172.4,101.6 L172.9,101.6 L173.4,101.6 L173.9,101.6 L174.4,101.6 L174.9,101.6 
		L175.4,101.6 L175.9,101.6 L176.4,101.6 L177.0,101.6 L177.4,101.6 L177.9,101.6 L178.4,101.6 L178.9,101.6 
		L179.4,101.6 L179.9,101.6 L180.4,101.6 L181.0,101.6 L181.5,101.6 L182.0,101.6 L182.5,101.6 L183.0,101.6 
		L183.5,101.6 L184.0,101.6 L184.5,101.6 L185.0,101.6 L185.5,101.6 L186.0,101.6 L186.5,101.6 L187.0,101.6 
		L187.5,101.6 L188.0,101.6 L188.5,101.6 L189.0,101.6 L189.5,101.6 L190.0,101.6 L190.5,101.6 L191.0,101.6 
		L191.5,101.6 L192.0,101.6 L192.5,101.6 L193.0,101.6 L193.5,101.6 L194.0,101.6 L194.5,101.6 L195.0,101.6 
		L195.5,101.6 L196.0,101.6 L196.5,101.6 L197.0,101.6 L197.5,101.6 L198.0,101.6 L198.5,101.6 L199.0,101.6 
		L199.5,101.6 L200.5,162.0 L201.5,162.0 L202.5,162.0 L203.5,162.0 L204.5,162.0 L205.5,162.0 L206.5,162.0 
		L207.5,162.0 L208.6,162.0  h0.01'/></g>
	</g>
	<g id="gnuplot_plot_4" ><title>gnuplot_plot_4</title>
<g style="fill:none; color:cyan; stroke:currentColor; stroke-width:1.00; stroke-linecap:round; stroke-linejoin:round">
	<g transform="translate(250.2,69.7)" style="stroke:none; fill:black; font-family:URW Bookman L; font-size:9.00pt; text-anchor:end">
		<text>App 4</text>
	</g>
	<path stroke-dasharray=' 8,4,2,4'  d='M256.5,66.3 L288.4,66.3 M118.3,190.6 L119.4,139.4 L119.6,16.1 L120.1,101.6 L120.6,101.6 L121.1,101.6 
		L121.6,101.6 L122.1,101.6 L122.6,101.6 L123.1,101.6 L123.6,101.6 L124.1,101.6 L124.6,101.6 L125.1,101.6 
		L125.6,101.6 L126.1,101.6 L126.6,101.6 L127.1,101.6 L127.6,101.6 L128.1,101.6 L128.6,101.6 L129.1,101.6 
		L129.6,101.6 L130.1,101.6 L130.6,101.6 L131.1,101.6 L131.6,101.6 L132.1,101.6 L132.6,101.6 L133.1,101.6 
		L133.7,101.6 L134.2,101.6 L134.7,101.6 L135.2,101.6 L135.7,101.6 L136.2,101.6 L136.7,101.6 L137.2,101.6 
		L137.7,101.6 L138.2,101.6 L138.7,101.6 L139.2,101.6 L139.7,101.6 L140.2,101.6 L140.7,101.6 L141.2,101.6 
		L141.7,101.6 L142.2,101.6 L142.7,101.6 L143.2,101.6 L143.7,101.6 L144.2,101.6 L144.7,101.6 L145.2,101.6 
		L145.7,101.6 L146.2,101.6 L146.7,101.6 L147.2,101.6 L147.7,101.6 L148.2,101.6 L148.7,101.6 L149.2,101.6 
		L149.7,101.6 L150.2,101.6 L150.7,101.6 L151.2,101.6 L151.6,101.6 L152.1,101.6 L152.6,101.6 L153.1,101.6 
		L153.6,101.6 L154.2,101.6 L154.6,101.6 L155.1,101.6 L155.6,101.6 L156.1,101.6 L156.6,101.6 L157.2,101.6 
		L157.7,101.6 L158.1,101.6 L158.6,101.6 L159.1,101.6 L159.6,101.6 L160.1,101.6 L160.6,101.6 L161.1,101.6 
		L161.6,101.6 L162.2,101.6 L162.7,101.6 L163.2,101.6 L163.7,101.6 L164.2,101.6 L164.7,101.6 L165.2,101.6 
		L165.7,101.6 L166.2,101.6 L166.7,101.6 L167.2,101.6 L167.7,101.6 L168.2,101.6 L168.7,101.6 L169.2,101.6 
		L169.7,101.6 L170.2,101.6 L170.7,101.6 L171.2,101.6 L171.7,101.6 L172.2,101.6 L172.7,101.6 L173.2,101.6 
		L173.7,101.6 L174.2,101.6 L174.7,101.6 L175.2,101.6 L175.7,101.6 L176.2,101.6 L177.2,162.0 L178.2,162.0 
		L179.2,162.0 L180.2,162.0 L181.2,162.0 L182.2,162.0 L183.2,162.0 L184.2,162.0 L185.2,162.0 L186.2,162.0 
		L187.2,162.0 L188.2,162.0 L189.2,162.0 L190.2,162.0 L191.2,162.0 L192.3,162.0 L193.3,162.0 L194.3,162.0 
		L195.3,162.0 L196.3,162.0 L197.3,162.0 L198.3,162.0 L199.3,162.0 L200.3,162.0 L201.3,162.0 L202.3,162.0 
		L203.3,162.0 L204.3,162.0 L205.3,162.0 L206.3,162.0 L207.3,162.0 L208.3,162.0 L209.3,162.0 L210.9,190.6 
		L212.4,190.6 L213.9,190.6 L215.4,190.6 L216.9,190.6 L218.4,190.6 L219.9,190.6 L221.4,190.6 L222.9,190.6 
		L224.5,190.6 L226.0,190.6 L227.5,190.6 L229.0,190.6 L230.5,190.6 L232.0,190.6 L233.5,190.6 L235.0,190.6 
		L236.5,190.6 L238.0,190.6 L239.6,190.6 L241.1,190.6 L242.6,190.6 L244.1,190.6 L245.6,190.6 L247.1,190.6 
		L248.6,190.6 L250.1,190.6 L251.6,190.6 L253.2,190.6 L254.7,190.6 L256.2,190.6 L257.7,190.6 L259.2,190.6 
		L260.7,190.6 L262.2,190.6 L263.7,190.6 L265.2,190.6 L266.8,190.6 L268.3,190.6 L269.8,190.6 L271.3,190.6 
		L272.8,190.6 L274.3,190.6 L275.8,190.6 L277.3,190.6 L278.8,190.6 L280.4,190.6 L281.9,190.6 L283.4,190.6 
		L284.9,190.6 L286.4,190.6  h0.01'/></g>
	</g>
<g style="fill:none; color:gray; stroke:currentColor; stroke-width:1.00; stroke-linecap:round; stroke-linejoin:round">
</g>
</g>
</svg>

